{
  "data": [
    {
      "patient_id": "DEMO001",
      "name": "TestPatient, John",
      "age": 45,
      "gender": "M",
      "blood_pressure": "120/80",
      "temperature": 98.6,
      "visit_date": "2024-01-15",
      "diagnosis": "Sample_Hypertension",
      "medications": "DemoMed_A 10mg, TestDrug_B 500mg"
    },
    {
      "patient_id": "DEMO002",
      "name": "AssessmentUser, Jane",
      "age": 67,
      "gender": "F",
      "blood_pressure": "140/90",
      "temperature": 99.2,
      "visit_date": "2024-01-16",
      "diagnosis": "Eval_Diabetes",
      "medications": "FakeMed 1000mg"
    },
    {
      "patient_id": "DEMO003",
      "name": "SkillsTest, Bob",
      "age": 34,
      "gender": "M",
      "blood_pressure": "110/70",
      "temperature": 98.4,
      "visit_date": "2024-01-17",
      "diagnosis": "Routine_Checkup",
      "medications": "n/a"
    },
    {
      "patient_id": "DEMO004",
      "name": "CodeChallenge, Alice",
      "age": 52,
      "gender": "F",
      "blood_pressure": "INVALID_BP_FORMAT",
      "temperature": 99.1,
      "visit_date": "2024-01-18",
      "diagnosis": "Test_Hypertension",
      "medications": "AssessmentDrug 20mg"
    },
    {
      "patient_id": "DEMO005",
      "name": "DataTest, Charlie",
      "age": 28,
      "gender": "M",
      "blood_pressure": "N/A",
      "temperature": 101.8,
      "visit_date": "2024-01-19",
      "diagnosis": "Fever_Assessment",
      "medications": "TestFlu 75mg"
    }
  ],
  "pagination": {
    "page": 1,
    "limit": 5,
    "total": 47,
    "totalPages": 10,
    "hasNext": true,
    "hasPrevious": false
  },
  "metadata": {
    "timestamp": "2025-07-31T19:49:30.362Z",
    "version": "v1.0",
    "requestId": "iad1::zfjkc-1753991370134-d6db4b8ec4cb"
  }
}